…
``` r
# What is the proportion of missing data in the entire dataset?
prop_miss(Student_Performance_Dataset)
```

    ## [1] 0.01465347

``` r
# What is the number and percentage of missing values grouped by
# each variable?
miss_var_summary(Student_Performance_Dataset)
```

    ## # A tibble: 100 × 3
    ##    variable                                                      n_miss pct_miss
    ##    <chr>                                                          <int>    <dbl>
    ##  1 CAT_2                                                             31    30.7 
    ##  2 Lab_4_Linear_Discriminant_Analysis                                18    17.8 
    ##  3 Quiz 5 on Concept 5 (Dashboarding) x/10                           12    11.9 
    ##  4 Lab 3 - 2.g. - (Logistic Regression using Gradient Descent) …      9     8.91
    ##  5 Quiz_4_Concept_4                                                   6     5.94
    ##  6 Lab 2 - 2.e. -  (Linear Regression using Gradient Descent) x…      6     5.94
    ##  7 CAT_1                                                              4     3.96
    ##  8 EXAM                                                               4     3.96
    ##  9 Lab_1_Simple_Linear_Regression                                     3     2.97
    ## 10 Quiz 3 on Concept 3 (Linear) x/15                                  2     1.98
    ## # ℹ 90 more rows
…
